<?xml version="1.0" encoding="utf-8"?>
<!-- Generator: Adobe Illustrator 18.1.1, SVG Export Plug-In . SVG Version: 6.00 Build 0)  -->
<svg version="1.1" id="Layer_1" xmlns="http://www.w3.org/2000/svg" xmlns:xlink="http://www.w3.org/1999/xlink" x="0px" y="0px"
	 viewBox="0 0 100 100" enable-background="new 0 0 100 100" xml:space="preserve">
<g>
	<path fill="#0094FF" d="M26.9,19.2c2.3,0,3.8-1.5,3.8-3.8V3.8c0-2.3-1.5-3.8-3.8-3.8c-2.3,0-3.8,1.5-3.8,3.8v11.5
		C23.1,17.7,24.6,19.2,26.9,19.2z"/>
	<path fill="#0094FF" d="M88.5,7.7h-7.7v7.7c0,4.2-3.5,7.7-7.7,7.7c-4.2,0-7.7-3.5-7.7-7.7V7.7H34.6v7.7c0,4.2-3.5,7.7-7.7,7.7
		c-4.2,0-7.7-3.5-7.7-7.7V7.7h-7.7C5,7.7,0,12.7,0,19.2v69.2C0,95,5,100,11.5,100h76.9c6.5,0,11.5-5,11.5-11.5V19.2
		C100,12.7,95,7.7,88.5,7.7z M92.3,88.5c0,2.3-1.5,3.8-3.8,3.8h-77c-2.3,0-3.8-1.5-3.8-3.8V34.6h84.6V88.5z"/>
	<path fill="#0094FF" d="M73.1,19.2c2.3,0,3.8-1.5,3.8-3.8V3.8c0-2.3-1.5-3.8-3.8-3.8c-2.3,0-3.8,1.5-3.8,3.8v11.5
		C69.2,17.7,70.8,19.2,73.1,19.2z"/>
	<path fill="#0094FF" d="M17.3,84.6h65.4c1.2,0,1.9-0.8,1.9-1.9V44.2c0-1.2-0.8-1.9-1.9-1.9H17.3c-1.2,0-1.9,0.8-1.9,1.9v38.5
		C15.4,83.8,16.2,84.6,17.3,84.6z M69.2,46.1h11.5v7.7H69.2V46.1z M69.2,57.7h11.5v11.5H69.2V57.7z M69.2,73.1h11.5v7.7H69.2V73.1z
		 M65.4,69.2h-7.7V57.7h7.7V69.2z M53.8,46.1h11.5v7.7h-8c-0.8-1.5-1.9-3.1-3.5-3.5V46.1z M53.8,76.5c1.5-0.8,3.1-1.9,3.5-3.5h8.1
		v7.7H53.8V76.5z M34.6,46.2H50V50H34.6V46.2z M34.6,57.7H50v11.5H34.6V57.7z M34.6,76.9H50v3.8H34.6V76.9z M19.2,46.2h11.6v4.2
		c-1.5,0.8-3.1,1.9-3.5,3.5h-8.1V46.2z M19.2,57.7h7.7v11.5h-7.7V57.7z M19.2,73.1h8.1c0.8,1.5,1.9,3.1,3.5,3.5v4.2H19.2V73.1z"/>
</g>
</svg>
